EESchema Schematic File Version 4
EELAYER 30 0
EELAYER END
$Descr A4 11693 8268
encoding utf-8
Sheet 1 1
Title ""
Date ""
Rev ""
Comp ""
Comment1 ""
Comment2 ""
Comment3 ""
Comment4 ""
$EndDescr
Text GLabel 1550 1150 2    50   Input ~ 0
GND
Text GLabel 1550 1050 2    50   Input ~ 0
5V
$Comp
L fab:PINHD-1x02-SMD-HEADER FAN1
U 1 1 60523B9C
P 4400 2200
F 0 "FAN1" H 4400 2200 45  0001 C CNN
F 1 "PINHD-1x02-SMD-HEADER" H 4400 2200 45  0001 C CNN
F 2 "fab:fab-1X02SMD" H 4430 2350 20  0001 C CNN
F 3 "" H 4400 2200 50  0001 C CNN
	1    4400 2200
	1    0    0    -1  
$EndComp
Text GLabel 4250 1650 0    50   Input ~ 0
GND
Text GLabel 4250 1850 0    50   Input ~ 0
VCC1
Wire Wire Line
	4250 1650 4400 1650
Wire Wire Line
	4400 1650 4400 1700
Wire Wire Line
	4250 1850 4400 1850
Wire Wire Line
	4400 1850 4400 1800
$Comp
L fab:RES-US1206FAB R1
U 1 1 60525F51
P 2600 1150
F 0 "R1" H 2600 1344 45  0000 C CNN
F 1 "10ohm" H 2600 1260 45  0000 C CNN
F 2 "fab:fab-R1206FAB" H 2630 1300 20  0001 C CNN
F 3 "" H 2600 1150 50  0001 C CNN
	1    2600 1150
	1    0    0    -1  
$EndComp
$Comp
L fab:RES-US1206FAB R2
U 1 1 60527583
P 2600 1500
F 0 "R2" H 2600 1694 45  0000 C CNN
F 1 "330ohm" H 2600 1610 45  0000 C CNN
F 2 "fab:fab-R1206FAB" H 2630 1650 20  0001 C CNN
F 3 "" H 2600 1500 50  0001 C CNN
	1    2600 1500
	1    0    0    -1  
$EndComp
Text GLabel 2250 1150 0    50   Input ~ 0
5V
Text GLabel 2250 1500 0    50   Input ~ 0
A1OUT
Wire Wire Line
	2250 1150 2400 1150
Wire Wire Line
	2250 1500 2400 1500
Text GLabel 3000 1150 2    50   Input ~ 0
VCC1
Wire Wire Line
	2800 1150 3000 1150
Text GLabel 3000 1500 2    50   Input ~ 0
A1IN
Wire Wire Line
	2800 1500 3000 1500
$Comp
L fab:PINHD-1x03-SMD-HEADER HUZZAH1
U 1 1 605249BF
P 1350 750
F 0 "HUZZAH1" H 1350 750 45  0001 C CNN
F 1 "PINHD-1x03-SMD-HEADER" H 1350 750 45  0001 C CNN
F 2 "fab:fab-1X03SMD" H 1380 900 20  0001 C CNN
F 3 "" H 1350 750 50  0001 C CNN
	1    1350 750 
	-1   0    0    1   
$EndComp
Wire Wire Line
	1350 1050 1550 1050
Wire Wire Line
	1350 1150 1550 1150
Text GLabel 1550 1250 2    50   Input ~ 0
A1OUT
Wire Wire Line
	1350 1250 1550 1250
$Comp
L fab:PINHD-1x03-SMD-HEADER NEOPIXEL1
U 1 1 605264CE
P 4400 2750
F 0 "NEOPIXEL1" H 4400 2750 45  0001 C CNN
F 1 "PINHD-1x03-SMD-HEADER" H 4400 2750 45  0001 C CNN
F 2 "fab:fab-1X03SMD" H 4430 2900 20  0001 C CNN
F 3 "" H 4400 2750 50  0001 C CNN
	1    4400 2750
	1    0    0    -1  
$EndComp
Text GLabel 4250 2450 0    50   Input ~ 0
A1IN
Wire Wire Line
	4400 2450 4250 2450
Text GLabel 4250 2350 0    50   Input ~ 0
GND
Wire Wire Line
	4250 2350 4400 2350
Text GLabel 4250 2250 0    50   Input ~ 0
5V
Wire Wire Line
	4400 2250 4250 2250
$EndSCHEMATC
